…
<img src="https://github.com/STAT545-UBC-students/hw04-huangjieying/blob/master/Figures/gather.png" height="100" width="300"/>

</p>

I will use *t1* dataset to demonstrate `gather()`:

``` r
t1=gapminder %>%
  filter(continent == "Asia" & year == "2002") %>%
  select(year, country, pop, lifeExp) %>%
  group_by(year) 
t1
```

    ## # A tibble: 33 x 4
    ## # Groups:   year [1]
    ##     year country                 pop lifeExp
    ##    <int> <fct>                 <int>   <dbl>
    ##  1  2002 Afghanistan        25268405    42.1
    ##  2  2002 Bahrain              656397    74.8
    ##  3  2002 Bangladesh        135656790    62.0
    ##  4  2002 Cambodia           12926707    56.8
    ##  5  2002 China            1280400000    72.0
    ##  6  2002 Hong Kong, China    6762476    81.5
    ##  7  2002 India            1034172547    62.9
    ##  8  2002 Indonesia         211060000    68.6
    ##  9  2002 Iran               66907826    69.5
    ## 10  2002 Iraq               24001816    57.0
    ## # ... with 23 more rows

I will use `gather()` to rearrange values from population and life
expectancy in same column and use a key to differentiate them.

``` r
t1 %>% 
  gather(pop, lifeExp, key=parameter, value=value) %>% 
  arrange(year, country) 
```

    ## # A tibble: 66 x 4
    ## # Groups:   year [1]
    ##     year country     parameter        value
    ##    <int> <fct>       <chr>            <dbl>
    ##  1  2002 Afghanistan pop         25268405  
    ##  2  2002 Afghanistan lifeExp           42.1
    ##  3  2002 Bahrain     pop           656397  
    ##  4  2002 Bahrain     lifeExp           74.8
    ##  5  2002 Bangladesh  pop        135656790  
    ##  6  2002 Bangladesh  lifeExp           62.0
    ##  7  2002 Cambodia    pop         12926707  
    ##  8  2002 Cambodia    lifeExp           56.8
    ##  9  2002 China       pop       1280400000  
    ## 10  2002 China       lifeExp           72.0
    ## # ... with 56 more rows
…
<img src="https://github.com/STAT545-UBC-students/hw04-huangjieying/blob/master/Figures/unitepng.png" height="100" width="300"/>

</p>

We can use `unite()`function to combine two columns into one. Using *t2*
as an example, assume we want to combine country and lifeExp into one
column:

``` r
t3=t2 %>% 
  unite(lifeInCountry, country, lifeExp, sep = ", ")
t3
```

    ## # A tibble: 24 x 2
    ## # Groups:   year [12]
    ##     year lifeInCountry      
    ##    <int> <chr>              
    ##  1  1952 Afghanistan, 28.801
    ##  2  1952 Israel, 65.39      
    ##  3  1957 Afghanistan, 30.332
    ##  4  1957 Israel, 67.84      
    ##  5  1962 Afghanistan, 31.997
    ##  6  1962 Israel, 69.39      
    ##  7  1967 Afghanistan, 34.02 
    ##  8  1967 Japan, 71.43       
    ##  9  1972 Afghanistan, 36.088
    ## 10  1972 Japan, 73.42       
    ## # ... with 14 more rows
…
### Seperate()

<p align="left">

<img src="https://github.com/STAT545-UBC-students/hw04-huangjieying/blob/master/Figures/separate.png" height="100" width="300"/>

</p>

``` r
t3 %>% 
  separate(lifeInCountry, c("country", "lifeExp"),sep = ", ")
```

    ## # A tibble: 24 x 3
    ## # Groups:   year [12]
    ##     year country     lifeExp
    ##    <int> <chr>       <chr>  
    ##  1  1952 Afghanistan 28.801 
    ##  2  1952 Israel      65.39  
    ##  3  1957 Afghanistan 30.332 
    ##  4  1957 Israel      67.84  
    ##  5  1962 Afghanistan 31.997 
    ##  6  1962 Israel      69.39  
    ##  7  1967 Afghanistan 34.02  
    ##  8  1967 Japan       71.43  
    ##  9  1972 Afghanistan 36.088 
    ## 10  1972 Japan       73.42  
    ## # ... with 14 more rows

One differece worth noticing is that the class of lifeExp is changed
from double to character after we unite and separate the data.

## Cheatsheet for dyplr join functions (Join Prompts)

I will use the *nycflight13* package to explore different join functions
in dyplr. *nycflight13* contains several tibbles that are related to
flights. In this deomstration, I will only use follow two datasets:

``` r
flights
```

    ## # A tibble: 336,776 x 19
    ##     year month   day dep_time sched_dep_time dep_delay arr_time
    ##    <int> <int> <int>    <int>          <int>     <dbl>    <int>
    ##  1  2013     1     1      517            515         2      830
    ##  2  2013     1     1      533            529         4      850
    ##  3  2013     1     1      542            540         2      923
    ##  4  2013     1     1      544            545        -1     1004
    ##  5  2013     1     1      554            600        -6      812
    ##  6  2013     1     1      554            558        -4      740
    ##  7  2013     1     1      555            600        -5      913
    ##  8  2013     1     1      557            600        -3      709
    ##  9  2013     1     1      557            600        -3      838
    ## 10  2013     1     1      558            600        -2      753
    ## # ... with 336,766 more rows, and 12 more variables: sched_arr_time <int>,
    ## #   arr_delay <dbl>, carrier <chr>, flight <int>, tailnum <chr>,
    ## #   origin <chr>, dest <chr>, air_time <dbl>, distance <dbl>, hour <dbl>,
    ## #   minute <dbl>, time_hour <dttm>
…
### Full\_join()

full\_join(x, y): Return all rows and all columns from both x and y.
Where there are not matching values, returns NA for the one missing.
This type of join could be very helpful when dealing with real data,
which we want to keep all records.

Let’s use previous example from left\_join again, see what happen:

``` r
flight2 %>% 
  full_join(airlines, by="carrier")
```

    ## # A tibble: 30 x 9
    ##     year month   day  hour origin dest  tailnum carrier name              
    ##    <int> <int> <int> <dbl> <chr>  <chr> <chr>   <chr>   <chr>             
    ##  1  2013     1     6     8 LGA    IAH   N76502  UA      United Air Lines …
    ##  2  2013     1     6     8 EWR    IAH   N14731  UA      United Air Lines …
    ##  3  2013    10     6     8 LGA    IAH   N438UA  UA      United Air Lines …
    ##  4  2013    11     6     8 LGA    IAH   N73270  UA      United Air Lines …
    ##  5  2013    11     6     8 EWR    IAH   N421UA  UA      United Air Lines …
    ##  6  2013    12     6     8 LGA    IAH   N76265  UA      United Air Lines …
    ##  7  2013    12     6     8 EWR    IAH   N491UA  UA      United Air Lines …
    ##  8  2013     2     6     8 EWR    IAH   N27733  UA      United Air Lines …
    ##  9  2013     4     6     8 LGA    IAH   N485UA  UA      United Air Lines …
    ## 10  2013     5     6     8 LGA    IAH   N33264  UA      United Air Lines …
    ## # ... with 20 more rows
…
